323430 51558 443
944891 399830 525
478560 697160 509
819195 473588 509
797742 475604 509
759723 448470 509
628453 151480 509
496297 514244 470
945573 123546 525
788261 364870 509
340343 765646 509
864664 724396 525
607440 918193 525
745301 528823 509
679730 939364 525
38456 908200 525
364978 63976 443
582331 464354 470
779732 149715 509
375591 500798 449
46994 384173 443
823527 572972 509
224060 897834 525
54967 693312 509
113657 988163 525
14652 986656 525
629035 359347 509
42798 845513 525
444145 417163 418
816048 123897 509
455046 739186 509
494465 836413 509
670918 365309 509
390090 618263 470
169169 272295 443
475479 250379 449
613704 94125 470
564003 706182 509
122229 117961 336
584971 158636 470
460039 361544 449
291493 273469 389
136186 660874 509
570986 791715 509
839509 71894 525
886798 197082 525
122765 505495 449
278385 600572 470
508487 304183 449
255597 339944 407
940731 484183 525
136527 707982 509
272948 151144 443
246563 693210 509
852979 221417 525
426025 646715 509
306164 439165 449
902692 392079 525
470536 912040 525
33488 622253 470
823009 27174 509
894131 520270 525
634796 380072 509
417228 550616 470
823001 377388 509
633256 974793 525
716982 212151 509
142612 260860 443
247865 447666 449
339565 133083 443
802332 602847 509
956179 356706 525
864099 620470 525
522876 88012 470
945209 561440 525
417317 357852 449
748408 763471 424
854242 262473 525
792904 388664 509
483479 552967 470
916510 950638 507
917631 552814 525
684966 556764 509
712361 691273 504
130044 30623 354
654723 732670 504
20499 604606 470
12303 994133 525
702008 209543 509
939570 23718 525
290929 522119 470
560491 748131 509
476863 587685 470
249953 760191 509
10243 83611 351
209237 285882 443
521085 18322 470
178998 791947 509
705967 285977 509
613523 58729 470
244448 1539 443
56427 638069 509
241404 180186 443
682400 913415 525
56921 869059 525
106762 304211 443
532372 562032 452
178664 282424 443
908186 668923 525
144946 554405 470
24323 594662 470
146890 242920 443
819224 979884 525
257808 643413 509
459317 250691 449
955540 951247 414
298826 283505 389
161639 223670 386
240891 960648 525
237386 257645 368
867431 536640 525
330184 990470 525
285830 987375 525
81120 473229 449
602092 263015 470
708570 174382 509
983082 666284 525
569082 866179 525
957011 487888 525
156114 277502 443
198556 611245 470
911602 494639 525
412253 931455 525
608699 244211 470
537076 923739 525
402002 648122 509
686409 643536 442
234928 800307 509
638251 7769 509
95957 801302 509
329369 285819 389
827612 769869 468
580510 5057 470
284394 838592 525
726419 181906 509
336960 480572 449
770568 969516 525
602545 377983 470
42622 825663 509
284013 509922 449
978443 178600 525
863291 903843 445
313632 893832 525
381125 58638 443
382183 943361 525
151949 417032 449
65862 755149 509
867006 653624 525
983617 228026 525
404893 22355 443
551036 690310 509
804382 786818 468
599901 344659 470
8339 538993 470
678800 941255 525
215743 506422 449
510564 673282 509
405641 794396 509
210323 247869 443
145612 540876 470
61023 499324 449
553227 19799 470
563543 97839 470
517506 463394 470
972473 55723 525
865879 138159 525
510129 288959 449
542320 439492 470
968768 538102 525
426974 349242 449
13496 870121 525
810934 890531 525
928675 148670 525
995969 371865 525
313476 466177 449
800713 180192 509
657589 562141 509
476052 624439 470
364399 129206 443
988525 397760 525
740776 73446 509
832093 476105 509
600727 540371 452
799545 857974 525
876691 309482 525
509973 73741 449
848089 82362 525
275990 447198 449
325228 400751 441
430053 303437 449
